[gd_scene load_steps=5 format=2]

[ext_resource path="res://scripts/Gamemaster.gd" type="Script" id=1]
[ext_resource path="res://objects/Player.tscn" type="PackedScene" id=2]
[ext_resource path="res://objects/Starfield.tscn" type="PackedScene" id=3]
[ext_resource path="res://objects/Spawner.tscn" type="PackedScene" id=4]

[node name="Level5" type="Node2D"]
script = ExtResource( 1 )
_sections_unfolded = [ "Pause", "Script", "Transform" ]
level = "level1"
path_player = NodePath("../Level5/Player")
path_starfield = NodePath("../Level5/Starfield")

[node name="Player" parent="." instance=ExtResource( 2 )]
position = Vector2( 0, 40 )
_sections_unfolded = [ "Pause", "Script", "Transform", "Z Index", "collision", "motion" ]
path_parent = NodePath("../../Level5")

[node name="Starfield" parent="." instance=ExtResource( 3 )]
_sections_unfolded = [ "Drawing", "Pause", "Process Material", "Script", "Time", "Transform", "process_material", "texture" ]

[node name="Spawner_Asteroid1" parent="." instance=ExtResource( 4 )]
position = Vector2( -50, -180 )
_sections_unfolded = [ "Script", "Transform" ]
spawnee = 0
path_gamemaster = NodePath("../../Level5")
count = 30
time_before = 1.0
distribution = 30

[node name="Spawner_Asteroid2" parent="." instance=ExtResource( 4 )]
position = Vector2( 50, -180 )
_sections_unfolded = [ "Script", "Transform" ]
spawnee = 0
path_gamemaster = NodePath("../../Level5")
count = 30
time_before = 1.0
distribution = 30

[node name="Spawner_Watcher" parent="." instance=ExtResource( 4 )]
position = Vector2( 0, -180 )
_sections_unfolded = [ "Script", "Transform" ]
spawnee = 5
path_gamemaster = NodePath("../../Level5")
count = 1
time_before = 15.0
time_between = 2.0

