[gd_scene load_steps=5 format=2]

[ext_resource path="res://scripts/Gamemaster.gd" type="Script" id=1]
[ext_resource path="res://objects/Player.tscn" type="PackedScene" id=2]
[ext_resource path="res://objects/Starfield.tscn" type="PackedScene" id=3]
[ext_resource path="res://objects/Spawner.tscn" type="PackedScene" id=4]

[node name="Level4" type="Node2D"]
script = ExtResource( 1 )
_sections_unfolded = [ "Script" ]
level = "level4"
path_player = NodePath("Player")
path_starfield = NodePath("../Level4/Starfield")

[node name="Player" parent="." instance=ExtResource( 2 )]
position = Vector2( 0, 80 )
_sections_unfolded = [ "Script", "Transform", "Z Index", "collision", "motion" ]
path_parent = NodePath("../../Level4")

[node name="Starfield" parent="." instance=ExtResource( 3 )]

[node name="Spawner_Turner1" parent="." instance=ExtResource( 4 )]
position = Vector2( 40, -160 )
_sections_unfolded = [ "Script", "Transform" ]
spawnee = 4
path_gamemaster = NodePath("..")
time_before = 3.0
time_between = 6.0
distribution = 20

[node name="Spawner_Turner2" parent="." instance=ExtResource( 4 )]
position = Vector2( -40, -160 )
_sections_unfolded = [ "Script", "Transform" ]
spawnee = 4
path_gamemaster = NodePath("..")
time_before = 6.0
time_between = 6.0
distribution = 20

