{
	"violent": [
		"The creature was born into a world of violence. And when it did not itself become violent, it fell to violence.",
		"So it was that in order to survive in this eternal battlefield, the creature's descendants turned to yet more efficient means of destroying those that would hunt them.",
		"The victorious children turned their arms on their enemies. Those who could not meet might with might were eradicated.",
		"And so the cycle continues...."
	],
	"pacifist": [
		"The creature was born into a world of violence. And yet, it did not itself become violent.",
		"When others sought to crush them, the creature's descendants relied on agility and speed to survive on the eternal battlefield.",
		"They now live without security; eternally hounded, fleeing from one nest to the next. They leave each corner of space having left nary a mark on the endless struggle for survival.",
		"And so the cycle continues...."
	]
}