[gd_resource type="DynamicFont" load_steps=2 format=2]

[ext_resource path="res://fonts/Renner_ 400 Book.ttf" type="DynamicFontData" id=1]

[resource]

size = 24
outline_size = 0
outline_color = Color( 1, 1, 1, 1 )
use_mipmaps = true
use_filter = true
font_data = ExtResource( 1 )
_sections_unfolded = [ "Extra Spacing", "Font", "Settings" ]

