[gd_scene load_steps=6 format=2]

[ext_resource path="res://scripts/player/Arms2.gd" type="Script" id=1]
[ext_resource path="res://sprites/player_bits/arms2.png" type="Texture" id=2]
[ext_resource path="res://sounds/player/fire2.ogg" type="AudioStream" id=3]
[ext_resource path="res://sounds/player/fire3.ogg" type="AudioStream" id=4]
[ext_resource path="res://sounds/player/charge.ogg" type="AudioStream" id=5]

[node name="Arms2" type="Node2D"]
script = ExtResource( 1 )
_sections_unfolded = [ "Script" ]

[node name="Sprite" type="Sprite" parent="."]
texture = ExtResource( 2 )

[node name="Position2D_Outpoint" type="Position2D" parent="."]
position = Vector2( 6.53242, -2.61141 )

[node name="Audio_Fire" type="AudioStreamPlayer2D" parent="."]
stream = ExtResource( 3 )
volume_db = -8.0
pitch_scale = 0.78
autoplay = false
stream_paused = false
max_distance = 2000.0
attenuation = 1.0
bus = "SFX"
area_mask = 1

[node name="Audio_FireCharged" type="AudioStreamPlayer2D" parent="."]
stream = ExtResource( 4 )
volume_db = 0.0
pitch_scale = 1.0
autoplay = false
stream_paused = false
max_distance = 2000.0
attenuation = 1.0
bus = "SFX"
area_mask = 1

[node name="Audio_Charge" type="AudioStreamPlayer2D" parent="."]
stream = ExtResource( 5 )
volume_db = 0.0
pitch_scale = 1.0
autoplay = false
stream_paused = false
max_distance = 2000.0
attenuation = 1.0
bus = "SFX"
area_mask = 1

