[gd_scene load_steps=4 format=2]

[ext_resource path="res://scripts/player/Arms1.gd" type="Script" id=1]
[ext_resource path="res://sprites/player_bits/arms1.png" type="Texture" id=2]
[ext_resource path="res://sounds/player/fire1.ogg" type="AudioStream" id=3]

[node name="Arms" type="Node2D"]
script = ExtResource( 1 )
_sections_unfolded = [ "Script" ]

[node name="Sprite" type="Sprite" parent="."]
texture = ExtResource( 2 )

[node name="Position2D_ShotLeft" type="Position2D" parent="."]
position = Vector2( -6.56112, -6.39144 )

[node name="Position2D_ShotRight" type="Position2D" parent="."]
position = Vector2( 6.61768, -6.448 )

[node name="Audio_Fire" type="AudioStreamPlayer2D" parent="."]
stream = ExtResource( 3 )
volume_db = -8.0
pitch_scale = 0.78
autoplay = false
stream_paused = false
max_distance = 2000.0
attenuation = 1.0
bus = "SFX"
area_mask = 1

