[gd_scene load_steps=3 format=2]

[ext_resource path="res://materials/Blind.shader" type="Shader" id=1]

[sub_resource type="ShaderMaterial" id=1]

render_priority = 0
shader = ExtResource( 1 )
_sections_unfolded = [ "shader" ]

[node name="Vision" type="CanvasLayer"]
layer = 0
offset = Vector2( 0, 0 )
rotation = 0.0
scale = Vector2( 1, 1 )
transform = Transform2D( 1, 0, 0, 1, 0, 0 )
_sections_unfolded = [ "Script" ]

[node name="ColorRect" type="ColorRect" parent="."]
material = SubResource( 1 )
anchor_left = 0.0
anchor_top = 0.0
anchor_right = 1.0
anchor_bottom = 1.0
rect_pivot_offset = Vector2( 0, 0 )
rect_clip_content = false
mouse_filter = 0
mouse_default_cursor_shape = 0
size_flags_horizontal = 1
size_flags_vertical = 1
color = Color( 1, 1, 1, 1 )
_sections_unfolded = [ "Material", "material" ]

