[gd_scene load_steps=4 format=2]

[ext_resource path="res://scripts/player/Head3.gd" type="Script" id=1]
[ext_resource path="res://sprites/player_bits/head3.png" type="Texture" id=2]
[ext_resource path="res://sounds/player/fire1.ogg" type="AudioStream" id=3]

[node name="Head3" type="Node2D"]
script = ExtResource( 1 )
_sections_unfolded = [ "Script" ]

[node name="Sprite" type="Sprite" parent="."]
texture = ExtResource( 2 )
_sections_unfolded = [ "Script" ]

[node name="Outpoint" type="Position2D" parent="."]
position = Vector2( 0.149887, -14.3894 )

[node name="Audio_Fire" type="AudioStreamPlayer2D" parent="."]
stream = ExtResource( 3 )
volume_db = 0.0
pitch_scale = 1.5
autoplay = false
stream_paused = false
max_distance = 2000.0
attenuation = 1.0
bus = "Master"
area_mask = 1

