[gd_scene load_steps=3 format=2]

[ext_resource path="res://scripts/player/Legs3.gd" type="Script" id=1]
[ext_resource path="res://sprites/player_bits/legs3.png" type="Texture" id=2]

[node name="Legs3" type="Node2D"]
script = ExtResource( 1 )
_sections_unfolded = [ "Script" ]

[node name="Sprite" type="Sprite" parent="."]
texture = ExtResource( 2 )
_sections_unfolded = [ "Script" ]

