[gd_scene load_steps=8 format=2]

[ext_resource path="res://materials/Enemy.tres" type="Material" id=1]
[ext_resource path="res://scripts/enemies/Biggie.gd" type="Script" id=2]
[ext_resource path="res://sprites/enemies/biggy.png" type="Texture" id=3]
[ext_resource path="res://sounds/enemies/biggie/drone.ogg" type="AudioStream" id=4]
[ext_resource path="res://sounds/enemies/biggie/fire.ogg" type="AudioStream" id=5]
[ext_resource path="res://sounds/enemy_hit.ogg" type="AudioStream" id=6]

[sub_resource type="CapsuleShape2D" id=1]

custom_solver_bias = 0.0
radius = 8.40403
height = 13.8549

[node name="Biggie" type="Area2D"]
material = ExtResource( 1 )
input_pickable = true
gravity_vec = Vector2( 0, 1 )
gravity = 98.0
linear_damp = 0.1
angular_damp = 1.0
audio_bus_override = false
audio_bus_name = "Master"
script = ExtResource( 2 )
_sections_unfolded = [ "Material", "Pause", "Script", "Transform", "material" ]

[node name="CollisionShape2D" type="CollisionShape2D" parent="."]
position = Vector2( 0, 2 )
rotation = 1.5708
shape = SubResource( 1 )
_sections_unfolded = [ "Transform" ]

[node name="Sprite" type="Sprite" parent="."]
use_parent_material = true
texture = ExtResource( 3 )
_sections_unfolded = [ "Material" ]

[node name="Position2D_Outpoint" type="Position2D" parent="."]
position = Vector2( 5.49746, 8.54605 )
_sections_unfolded = [ "Transform" ]

[node name="Audio_Drone" type="AudioStreamPlayer2D" parent="."]
stream = ExtResource( 4 )
volume_db = 0.0
pitch_scale = 1.0
autoplay = false
stream_paused = false
max_distance = 200.0
attenuation = 1.8025
bus = "SFX"
area_mask = 1

[node name="Audio_Fire" type="AudioStreamPlayer2D" parent="."]
stream = ExtResource( 5 )
volume_db = 0.0
pitch_scale = 1.0
autoplay = false
stream_paused = false
max_distance = 500.0
attenuation = 1.8025
bus = "SFX"
area_mask = 1

[node name="Audio_Hit" type="AudioStreamPlayer2D" parent="."]
stream = ExtResource( 6 )
volume_db = 0.0
pitch_scale = 1.0
autoplay = false
stream_paused = false
max_distance = 2000.0
attenuation = 1.0
bus = "SFX"
area_mask = 1

[connection signal="area_entered" from="." to="." method="_area_entered"]
