[gd_scene load_steps=7 format=2]

[ext_resource path="res://scripts/ui/Credits.gd" type="Script" id=1]
[ext_resource path="res://materials/UI_Addition.tres" type="Material" id=2]
[ext_resource path="res://fonts/font_text.tres" type="DynamicFont" id=3]
[ext_resource path="res://fonts/font_buttons.tres" type="DynamicFont" id=4]
[ext_resource path="res://sounds/ui/mouseover.ogg" type="AudioStream" id=5]
[ext_resource path="res://sounds/ui/select.ogg" type="AudioStream" id=6]

[node name="Credits" type="Control"]
anchor_left = 0.5
anchor_top = 0.5
anchor_right = 0.5
anchor_bottom = 0.5
margin_left = -270.0
margin_top = -480.0
margin_right = 270.0
margin_bottom = 480.0
rect_pivot_offset = Vector2( 0, 0 )
rect_clip_content = false
mouse_filter = 0
mouse_default_cursor_shape = 0
size_flags_horizontal = 1
size_flags_vertical = 1
script = ExtResource( 1 )
_sections_unfolded = [ "Material", "Script" ]

[node name="Label_Credits" type="Label" parent="."]
material = ExtResource( 2 )
anchor_left = 0.0
anchor_top = 0.0
anchor_right = 1.0
anchor_bottom = 1.0
rect_pivot_offset = Vector2( 0, 0 )
rect_clip_content = false
mouse_filter = 2
mouse_default_cursor_shape = 0
size_flags_horizontal = 1
size_flags_vertical = 4
custom_fonts/font = ExtResource( 3 )
custom_colors/font_color = Color( 0.588235, 0.784314, 0.588235, 1 )
text = "Design, code & art by John Gabriel

\"Shadowlands 4 - Breath\", \"Despair and Triumph\"
Kevin MacLeod (incompetech.com)
Licensed under CC BY 3.0
http://creativecommons.org/licenses/by/3.0/

The art and source code for Evodevo is
available under GNU General Public License v3.0
at http://bitbucket.org/JohnGabrielUK/evodevo

Made in Godot 3.1 alpha 1
for Godot Wild Jam #1"
align = 1
valign = 1
percent_visible = 1.0
lines_skipped = 0
max_lines_visible = -1
_sections_unfolded = [ "Material", "Theme", "custom_colors", "custom_fonts", "custom_styles" ]

[node name="Button_Back" type="Button" parent="."]
material = ExtResource( 2 )
anchor_left = 0.5
anchor_top = 1.0
anchor_right = 0.5
anchor_bottom = 1.0
margin_left = -48.0
margin_top = -60.0
margin_right = 48.0
margin_bottom = -20.0
rect_pivot_offset = Vector2( 0, 0 )
rect_clip_content = false
focus_mode = 2
mouse_filter = 0
mouse_default_cursor_shape = 0
size_flags_horizontal = 1
size_flags_vertical = 1
custom_fonts/font = ExtResource( 4 )
custom_colors/font_color = Color( 0.588235, 0.784314, 0.588235, 1 )
toggle_mode = false
enabled_focus_mode = 2
shortcut = null
group = null
text = "Back"
flat = true
align = 1
_sections_unfolded = [ "Margin", "Material", "Rect", "custom_colors", "custom_fonts" ]

[node name="Audio_Mouseover" type="AudioStreamPlayer" parent="."]
pause_mode = 2
stream = ExtResource( 5 )
volume_db = 0.0
pitch_scale = 1.0
autoplay = false
stream_paused = false
mix_target = 0
bus = "UI"
_sections_unfolded = [ "Pause", "Script" ]

[node name="Audio_Selected" type="AudioStreamPlayer" parent="."]
pause_mode = 2
stream = ExtResource( 6 )
volume_db = 0.0
pitch_scale = 1.0
autoplay = false
stream_paused = false
mix_target = 0
bus = "UI"
_sections_unfolded = [ "Pause" ]

[connection signal="mouse_entered" from="Button_Back" to="." method="mouseover"]
[connection signal="pressed" from="Button_Back" to="." method="back_pressed"]
