[gd_scene load_steps=4 format=2]

[ext_resource path="res://fonts/font_buttons.tres" type="DynamicFont" id=1]
[ext_resource path="res://scripts/ui/ModeButton.gd" type="Script" id=2]


[sub_resource type="CanvasItemMaterial" id=1]

render_priority = 0
blend_mode = 1
light_mode = 0

[node name="ModeButton" type="Button"]
material = SubResource( 1 )
anchor_left = 0.0
anchor_top = 0.0
anchor_right = 0.0
anchor_bottom = 0.0
margin_right = 240.0
margin_bottom = 41.0
rect_pivot_offset = Vector2( 0, 0 )
rect_clip_content = false
focus_mode = 2
mouse_filter = 0
mouse_default_cursor_shape = 0
size_flags_horizontal = 1
size_flags_vertical = 0
custom_fonts/font = ExtResource( 1 )
custom_colors/font_color = Color( 0.588235, 0.784314, 0.588235, 1 )
toggle_mode = false
enabled_focus_mode = 2
shortcut = null
group = null
text = "Unchanging"
flat = true
align = 1
script = ExtResource( 2 )
_sections_unfolded = [ "Material", "Rect", "Script", "Size Flags", "Visibility", "custom_colors", "custom_constants", "custom_fonts", "custom_fonts/font", "material" ]

[connection signal="mouse_entered" from="." to="." method="_mouse_entered"]
[connection signal="pressed" from="." to="." method="_pressed"]
