[gd_scene load_steps=4 format=2]

[ext_resource path="res://scripts/ui/UI.gd" type="Script" id=1]
[ext_resource path="res://sprites/ui/healthbar_empty.png" type="Texture" id=2]
[ext_resource path="res://sprites/ui/healthbar_full.png" type="Texture" id=3]

[node name="UI" type="CanvasLayer"]
layer = 1
offset = Vector2( 0, 0 )
rotation = 0.0
scale = Vector2( 1, 1 )
transform = Transform2D( 1, 0, 0, 1, 0, 0 )
script = ExtResource( 1 )
_sections_unfolded = [ "Script" ]

[node name="Healthbar" type="TextureProgress" parent="."]
anchor_left = 0.5
anchor_top = 0.5
anchor_right = 0.5
anchor_bottom = 0.5
margin_left = -252.0
margin_top = 439.0
margin_right = -204.0
margin_bottom = 463.0
rect_pivot_offset = Vector2( 0, 0 )
rect_clip_content = false
mouse_filter = 1
mouse_default_cursor_shape = 0
size_flags_horizontal = 1
size_flags_vertical = 1
min_value = 0.0
max_value = 1.0
step = 0.0
page = 0.0
value = 0.0
exp_edit = false
rounded = false
allow_greater = false
allow_lesser = false
texture_under = ExtResource( 2 )
texture_over = null
texture_progress = ExtResource( 3 )
tint_under = Color( 1, 1, 1, 1 )
tint_over = Color( 1, 1, 1, 1 )
tint_progress = Color( 1, 1, 1, 1 )
radial_fill_degrees = 360.0
radial_center_offset = Vector2( 0, 0 )
nine_patch_stretch = true
stretch_margin_left = 24
stretch_margin_right = 24
_sections_unfolded = [ "Radial Fill", "Rect", "Textures" ]

